{ "cust1" : {'NETWORK_NOT_AVAIL_' : [218.08,180.43,234.76,74.28,136.79,209.45],
'RAISED_TKT_CNT_' : [0,0,0,0,0,0],
'RAISED_COMPLAINTS_CNT_6' : [92],
'PENALTY_AMT_FL_6' : [0],
'CLOSED_TKT_CNT_OVERALL_SEVR_' : [0,0,0,0,0,0],
'DISPUTES_AMT_' : [0,0,0,0,0,0]} , 
 
           
"cust2" : {'NETWORK_NOT_AVAIL_' : [153.6,177.1,154.72,148.84,-14.3,111.68],
'RAISED_TKT_CNT_' : [0,0,0,0,0,0],
'RAISED_COMPLAINTS_CNT_6' : [100],
'PENALTY_AMT_FL_6' : [0],
'CLOSED_TKT_CNT_OVERALL_SEVR_' : [0,0,0,0,0,0],
'DISPUTES_AMT_' : [0,0,0,0,0,0]},
           
           
"cust3" : {'NETWORK_NOT_AVAIL_' : [155.25,64.46,145.04,130.17,107.47,87.82],
'RAISED_TKT_CNT_' : [0,0,0,0,0,0],
'RAISED_COMPLAINTS_CNT_6' : [142],
'PENALTY_AMT_FL_6' : [0],
'CLOSED_TKT_CNT_OVERALL_SEVR_' : [0,0,0,0,0,0],
'DISPUTES_AMT_' : [0,0,0,0,0,0]}
}